{
  "data": [
    {
      "category": "3.10",
      "date": "2024-09",
      "downloads": 236
    },
    {
      "category": "3.10",
      "date": "2024-10",
      "downloads": 243
    },
    {
      "category": "3.10",
      "date": "2024-11",
      "downloads": 242
    },
    {
      "category": "3.10",
      "date": "2024-12",
      "downloads": 254
    },
    {
      "category": "3.10",
      "date": "2025-01",
      "downloads": 250
    },
    {
      "category": "3.10",
      "date": "2025-02",
      "downloads": 217
    },
    {
      "category": "3.10",
      "date": "2025-03",
      "downloads": 8
    },
    {
      "category": "3.11",
      "date": "2024-09",
      "downloads": 242
    },
    {
      "category": "3.11",
      "date": "2024-10",
      "downloads": 241
    },
    {
      "category": "3.11",
      "date": "2024-11",
      "downloads": 241
    },
    {
      "category": "3.11",
      "date": "2024-12",
      "downloads": 253
    },
    {
      "category": "3.11",
      "date": "2025-01",
      "downloads": 251
    },
    {
      "category": "3.11",
      "date": "2025-02",
      "downloads": 216
    },
    {
      "category": "3.11",
      "date": "2025-03",
      "downloads": 8
    },
    {
      "category": "3.12",
      "date": "2024-09",
      "downloads": 232
    },
    {
      "category": "3.12",
      "date": "2024-10",
      "downloads": 242
    },
    {
      "category": "3.12",
      "date": "2024-11",
      "downloads": 245
    },
    {
      "category": "3.12",
      "date": "2024-12",
      "downloads": 252
    },
    {
      "category": "3.12",
      "date": "2025-01",
      "downloads": 257
    },
    {
      "category": "3.12",
      "date": "2025-02",
      "downloads": 223
    },
    {
      "category": "3.12",
      "date": "2025-03",
      "downloads": 8
    },
    {
      "category": "3.13",
      "date": "2025-01",
      "downloads": 1
    },
    {
      "category": "3.13",
      "date": "2025-02",
      "downloads": 6
    },
    {
      "category": "3.6",
      "date": "2024-12",
      "downloads": 1
    },
    {
      "category": "3.7",
      "date": "2024-10",
      "downloads": 2
    },
    {
      "category": "3.8",
      "date": "2024-09",
      "downloads": 234
    },
    {
      "category": "3.8",
      "date": "2024-10",
      "downloads": 242
    },
    {
      "category": "3.8",
      "date": "2024-11",
      "downloads": 243
    },
    {
      "category": "3.8",
      "date": "2024-12",
      "downloads": 252
    },
    {
      "category": "3.8",
      "date": "2025-01",
      "downloads": 249
    },
    {
      "category": "3.8",
      "date": "2025-02",
      "downloads": 221
    },
    {
      "category": "3.8",
      "date": "2025-03",
      "downloads": 8
    },
    {
      "category": "3.9",
      "date": "2024-10",
      "downloads": 8
    },
    {
      "category": "3.9",
      "date": "2024-11",
      "downloads": 2
    },
    {
      "category": "null",
      "date": "2024-09",
      "downloads": 100
    },
    {
      "category": "null",
      "date": "2024-10",
      "downloads": 248
    },
    {
      "category": "null",
      "date": "2024-11",
      "downloads": 100
    },
    {
      "category": "null",
      "date": "2024-12",
      "downloads": 72
    },
    {
      "category": "null",
      "date": "2025-01",
      "downloads": 157
    },
    {
      "category": "null",
      "date": "2025-02",
      "downloads": 100
    },
    {
      "category": "null",
      "date": "2025-03",
      "downloads": 1
    }
  ],
  "package": "sbom",
  "type": "python_minor_downloads"
}
